{
    "bridge": {
        "name": "Homebridge 71F5",
        "username": "0E:AF:D6:B0:71:F5",
        "port": 51874,
        "pin": "675-98-681",
        "advertiser": "bonjour-hap"
    },
    "accessories": [],
    "platforms": [
        {
            "name": "Config",
            "port": 8581,
            "platform": "config"
        },
        {
            "devices": [
                {
                    "name": "Temperature",
                    "host": "https://n123.meraki.com",
                    "apiKey": "abcdefghij1234566",
                    "organizationId": "123456",
                    "networkId": "L_1234567890",
                    "serial": "ABCD-1234-ABCD",
                    "type": "tempSensor",
                    "refreshInterval": 10
                },
                {
                    "name": "Humidity",
                    "host": "https://n123456.meraki.com",
                    "apiKey": "abcdefghij1234566",
                    "organizationId": "123456",
                    "networkId": "L_1234567890",
                    "serial": "ABCD-1234-ABCD",
                    "type": "humiditySensor",
                    "refreshInterval": 60
                },
                {
                    "name": "Balcony Door",
                    "host": "https://n123456.meraki.com",
                    "apiKey": "abcdefghij1234566",
                    "organizationId": "123456",
                    "networkId": "L_1234567890",
                    "serial": "ABCD-1234-ABCD",
                    "type": "doorSensor",
                    "refreshInterval": 5
                },
                {
                    "name": "Flood Sensor",
                    "host": "https://n123456.meraki.com",
                    "apiKey": "abcdefghij1234566",
                    "organizationId": "123456",
                    "networkId": "L_1234567890",
                    "serial": "ABCD-1234-ABCD",
                    "type": "waterSensor",
                    "refreshInterval": 30
                }
            ],
            "platform": "MerakiMT",
            "_bridge": {
                "username": "0E:C4:95:EB:6B:D3",
                "port": 34668
            }
        }
    ]
}